<?xml version="1.0" standalone="no"?>
<!DOCTYPE svg PUBLIC "-//W3C//DTD SVG 1.1//EN" "http://www.w3.org/Graphics/SVG/1.1/DTD/svg11.dtd" >
<svg xmlns="http://www.w3.org/2000/svg">
<metadata>
Created by FontForge 20120731 at Sun Jul  5 01:04:25 2015
 By Ads
</metadata>
<defs>
<font id="iconfont" horiz-adv-x="1024" >
  <font-face 
    font-family="iconfont"
    font-weight="500"
    font-stretch="normal"
    units-per-em="1024"
    panose-1="2 0 6 3 0 0 0 0 0 0"
    ascent="812"
    descent="-212"
    x-height="792"
    bbox="34 -146 968.667 792"
    underline-thickness="50"
    underline-position="-100"
    unicode-range="U+0078-E790"
  />
<missing-glyph horiz-adv-x="374" 
d="M34 0v682h272v-682h-272zM68 34h204v614h-204v-614z" />
    <glyph glyph-name=".notdef" horiz-adv-x="374" 
d="M34 0v682h272v-682h-272zM68 34h204v614h-204v-614z" />
    <glyph glyph-name=".null" horiz-adv-x="0" 
 />
    <glyph glyph-name="nonmarkingreturn" horiz-adv-x="341" 
 />
    <glyph glyph-name="x" unicode="x" horiz-adv-x="1001" 
d="M281 543q-27 -1 -53 -1h-83q-18 0 -36.5 -6t-32.5 -18.5t-23 -32t-9 -45.5v-76h912v41q0 16 -0.5 30t-0.5 18q0 13 -5 29t-17 29.5t-31.5 22.5t-49.5 9h-133v-97h-438v97zM955 310v-52q0 -23 0.5 -52t0.5 -58t-10.5 -47.5t-26 -30t-33 -16t-31.5 -4.5q-14 -1 -29.5 -0.5
t-29.5 0.5h-32l-45 128h-439l-44 -128h-29h-34q-20 0 -45 1q-25 0 -41 9.5t-25.5 23t-13.5 29.5t-4 30v167h911zM163 247q-12 0 -21 -8.5t-9 -21.5t9 -21.5t21 -8.5q13 0 22 8.5t9 21.5t-9 21.5t-22 8.5zM316 123q-8 -26 -14 -48q-5 -19 -10.5 -37t-7.5 -25t-3 -15t1 -14.5
t9.5 -10.5t21.5 -4h37h67h81h80h64h36q23 0 34 12t2 38q-5 13 -9.5 30.5t-9.5 34.5q-5 19 -11 39h-368zM336 498v228q0 11 2.5 23t10 21.5t20.5 15.5t34 6h188q31 0 51.5 -14.5t20.5 -52.5v-227h-327z" />
    <glyph glyph-name="uniE602" unicode="&#xe602;" 
d="M433 693h-268q-9 0 -18 -3t-16 -8.5t-12.5 -12.5t-8.5 -16t-3 -18v-266q0 -24 17 -41t41 -17h268q23 0 40 17t17 41v266q0 24 -17 41t-40 17zM426 404q0 -7 -3.5 -14t-10.5 -11t-15 -4h-197q-6 0 -11 2.5t-9 6.5t-6.5 9.5t-2.5 10.5v196q0 12 8.5 20.5t20.5 8.5h197
q12 0 20.5 -8.5t8.5 -20.5v-196zM858 693h-267q-24 0 -41 -17t-17 -40v-266q0 -24 17 -41t41 -17h267q24 0 41 17t17 41v266q0 23 -17 40t-41 17zM852 405q0 -6 -2.5 -11.5t-6 -9t-9 -6t-11.5 -2.5h-197q-8 0 -14.5 4t-10.5 10.5t-4 14.5v196q0 12 8.5 20.5t20.5 8.5h197
q12 0 20.5 -8.5t8.5 -20.5v-196zM433 267h-267q-8 0 -15.5 -2.5t-14 -6t-11.5 -9t-9 -11.5t-6 -13.5t-2 -15.5v-266q0 -16 8 -29t21 -21t29 -8h267q24 0 41 17t17 41v266q0 16 -7.5 29t-21 21t-29.5 8zM427 -22q0 -12 -8.5 -20.5t-20.5 -8.5h-197q-3 0 -6.5 1t-6.5 2.5
t-5.5 3.5t-4.5 4.5t-3.5 5.5t-2 6t-0.5 6v196q0 12 8.5 20.5t20.5 8.5h197q12 0 20.5 -8.5t8.5 -20.5v-196zM859 267h-268q-23 0 -40 -17t-17 -40v-266q0 -10 3 -18.5t8 -16t12 -12.5t16 -8t18 -3h268q24 0 41 17t17 41v266q0 23 -17 40t-41 17z" />
    <glyph glyph-name="uniE605" unicode="&#xe605;" 
d="M398 -34v6v230q0 6 2.5 12t6.5 10.5t10 7t13 2.5h171q14 0 23 -8.5t9 -23.5v-230v-6h5h154q22 0 22 22v277v7q0 2 1 5.5t2 5.5q7 20 29 16q7 -1 12 -4.5t8 -9t3 -11.5q0 -2 0.5 -4t0.5 -4v-279q0 -7 -1 -13.5t-3 -12.5t-4.5 -11t-6 -10t-8 -9t-10 -7.5t-11.5 -6.5
q-14 -7 -34 -7h-69h-73h-66h-73h-69h-64h-77h-63q-44 0 -67 37q-10 17 -10 39v280q0 18 9 26q13 11 29 5q16 -5 18 -23v-8v-1v-278q0 -10 6 -16q5 -5 14 -5h157h4zM576 178h-122v-212h122v212zM65 306q0 9 8 16q7 6 14 12.5t13 11.5t14 12q325 278 380 325q9 7 21.5 7
t20.5 -7q62 -53 393 -336q21 -18 29 -25q13 -13 5 -30.5t-26 -16.5q-6 0 -11 2.5t-10 7.5q-60 51 -92 79q-223 189 -305 260q-4 3 -7 0q-47 -40 -104 -89t-89.5 -76.5t-109 -93t-94.5 -80.5q-11 -10 -21 -10q-12 -1 -20.5 8t-8.5 23z" />
    <glyph glyph-name="uniE623" unicode="&#xe623;" 
d="M457 286q-148 147 -108 186q3 3 9 8q16 17 23.5 25.5t15.5 25t5 31.5t-14 38t-34 51q-13 17 -26 28.5t-25.5 16t-22.5 6.5t-21.5 -2.5t-19.5 -8t-19 -13t-17 -15.5t-17 -17.5t-16 -15.5q-15 -16 -18.5 -47t8 -75.5t35.5 -94.5t67 -109t98.5 -114.5t114.5 -98.5t109 -67
t94.5 -35.5t75.5 -8t47 19.5q4 4 14 13.5t15.5 15t14.5 15t13 16.5t9 17t5.5 18.5t-1 19.5t-7.5 21.5t-16 22.5t-26 24q-79 64 -125 41q-15 -7 -54 -46q-40 -39 -186 108v0z" />
    <glyph glyph-name="uniE624" unicode="&#xe624;" 
d="M510 -146q-72 0 -140.5 22.5t-123.5 64t-96.5 96.5t-64 123.5t-22.5 141.5q0 91 35.5 173.5t95.5 142.5t142.5 95.5t173.5 35.5q73 0 141.5 -22.5t123.5 -64t96.5 -96.5t64 -123.5t22.5 -140.5q0 -170 -113 -297q-109 -123 -270 -146q-33 -5 -65 -5zM510 703
q-109 0 -201.5 -53.5t-146 -146t-53.5 -201.5t53.5 -201.5t146 -146.5t201.5 -54t201.5 54t146.5 146.5t54 201.5t-54 201.5t-146.5 146t-201.5 53.5zM796.5 -34q-9.5 0 -16.5 7t-7 16q0 30 -8.5 56.5t-21.5 45t-30.5 34t-33 24.5t-31 15.5t-22 8.5t-9.5 3q-7 2 -11.5 7
t-6 11.5t1.5 13t8 10.5q3 1 6.5 4t12 11.5t15.5 18.5t14 25.5t11 32.5t3.5 39.5t-6.5 46.5q-5 19 -15 35.5t-24.5 29.5t-32.5 22.5t-39 14.5t-44 5q-57 0 -99.5 -29.5t-54.5 -77.5q-7 -24 -7 -47t4 -40t11.5 -33t14.5 -25.5t15.5 -18t11.5 -11t5 -3.5q13 -9 10 -24t-18 -18
q-7 -2 -19 -5.5t-38 -18t-46 -33.5t-36.5 -53.5t-16.5 -76.5q0 -9 -6.5 -16t-16 -7t-16.5 7t-7 16q0 47 15.5 86.5t41 65t48.5 41t48 26.5q-19 22 -31.5 49t-18.5 67t7 84q17 63 71.5 102t127.5 39t128 -39t72 -102q6 -27 7 -52.5t-2.5 -46.5t-11.5 -40.5t-17 -34t-20 -27.5
q25 -11 48 -26.5t49 -41.5t41 -65t15 -85q0 -9 -6.5 -16t-16 -7z" />
    <glyph glyph-name="uniE790" unicode="&#xe790;" 
d="M819 188l148 338q1 3 1.5 6.5t-0.5 6.5t-3 6q-5 8 -16 8h-636l-24 112q-3 15 -19 15h-207q-8 0 -13.5 -5.5t-5.5 -13.5t5.5 -13.5t13.5 -5.5h192l120 -556q-35 -7 -57.5 -34.5t-22.5 -63.5q0 -42 29.5 -71.5t71.5 -29.5t71.5 29.5t29.5 71.5q0 17 -6 33t-16 29h220
q-23 -28 -23 -62q0 -28 13.5 -51t37 -36.5t50.5 -13.5q42 0 71.5 29.5t29.5 71.5q0 20 -8 39t-21.5 32.5t-32 21.5t-39.5 8l-1 -1h-1v1h-358v1l-18 86h406q13 0 18 12zM396 -75q-26 0 -44.5 18.5t-18.5 44.5q0 17 8.5 31.5t23 22.5t31.5 8t31.5 -8t23 -22.5t8.5 -31.5
q0 -38 -34 -56q-14 -7 -29 -7zM836 -12q0 -13 -5 -24.5t-13.5 -20t-20 -13.5t-24.5 -5q-25 0 -43.5 18.5t-18.5 44.5q0 12 5 24t13.5 20t20 13t23.5 5q26 0 44.5 -18t18.5 -44zM391 215l-69 300h598l-131 -300h-398z" />
  </font>
</defs></svg>
